<svg enable-background="new 0 0 256 256" height="256px" id="Layer_1" version="1.1" viewBox="0 0 256 256" width="256px"
     xml:space="preserve" xmlns="http://www.w3.org/2000/svg">
  <g>
    <g>
      <path
        d="M20,42h25.001V30H20C9.002,30,0,39.002,0,50v186c0,10.996,9,20,20,20h160.002     c6.046,0,11.486-2.719,15.161-6.994l-4.453-5.037c-1.33-1.505-2.456-3.094-3.379-4.774c-1.24,2.821-4.065,4.806-7.329,4.806H20     c-4.396,0-8-3.6-8-8V50C12,45.6,15.6,42,20,42L20,42z M200.002,159.355V50c0-11-9.002-20-20-20h-25.001v12h25.001     c4.4,0,8,3.602,8,8v103.174C192.507,153.785,196.786,155.916,200.002,159.355L200.002,159.355z M112,104.001     c-2.761,0-5-2.239-5-5c0-2.762,2.239-5,5-5h48.002c2.761,0,5,2.238,5,5c0,2.761-2.239,5-5,5H112L112,104.001z M97,138.001     c-2.761,0-5-2.238-5-5c0-2.761,2.239-4.999,5-4.999h63.002c2.761,0,5,2.238,5,4.999c0,2.762-2.239,5-5,5H97L97,138.001z      M112,172.002c-2.761,0-5-2.238-5-5c0-2.761,2.239-5,5-5h48.002c2.761,0,5,2.239,5,5c0,2.762-2.239,5-5,5H112L112,172.002z      M97,206.004c-2.761,0-5-2.239-5-5.001c0-2.761,2.239-5,5-5h63.002c2.761,0,5,2.239,5,5c0,2.762-2.239,5.001-5,5.001H97     L97,206.004z M100.001,12c4.419,0,8,3.581,8,8c0,4.418-3.581,8-8,8c-4.418,0-8-3.582-8-8C92.001,15.581,95.583,12,100.001,12     L100.001,12z M57.001,19.999h23C80.002,8.954,88.956,0,100.001,0c11.046,0,20,8.954,20,19.999h23V45c0,2.75-2.25,4.999-5,4.999     h-76c-2.75,0-5-2.249-5-4.999L57.001,19.999L57.001,19.999z" />
      <path
        d="M57,123c13.255,0,24-10.744,24-23.999s-10.745-24-24-24c-13.254,0-24.001,10.746-24.001,24     S43.746,123,57,123L57,123z M57,191.002c13.255,0,24-10.744,24-24c0-13.254-10.745-24-24-24c-13.254,0-24.001,10.746-24.001,24     S43.746,191.002,57,191.002L57,191.002z M54.259,167.326c3.441-4.636,7.299-8.988,11.344-12.933     c4.738-4.62,11.769,2.584,7.019,7.215c-5.001,4.876-10.079,10.848-13.827,16.831c-2.233,3.565-6.505,3.214-8.469,0.541     l-9.499-12.926c-1.646-2.24-1.159-5.395,1.084-7.038c2.243-1.645,5.392-1.156,7.038,1.085L54.259,167.326L54.259,167.326z      M54.259,99.326c3.441-4.638,7.299-8.989,11.344-12.935c4.738-4.62,11.769,2.585,7.019,7.216     c-5.001,4.876-10.079,10.847-13.827,16.831c-2.233,3.565-6.505,3.213-8.469,0.54l-9.499-12.926     c-1.646-2.24-1.159-5.395,1.084-7.038s5.392-1.155,7.038,1.085L54.259,99.326L54.259,99.326z"/>
      <path
        d="M211.237,158.127l24.314,17.587c4.236,3.063,7.164,6.994,7.644,12.171l4.645,50.119L256,256h-44.85     l-2.424-6.749l-10.524-11.905c-2.147-2.43-3.373-5.059-3.848-8.251l-4.605-31.019l-12.627-19.975     c-2.938-4.658-1.575-10.767,3.045-13.645c4.62-2.877,10.747-1.434,13.687,3.225l15.811,25.059l2.078-4.516l-1.256-6.234     l-0.822-1.111v-23.547C210.209,157.506,210.732,157.762,211.237,158.127L211.237,158.127z"/>
    </g>
  </g>
</svg>