<?xml version="1.0" ?>
<!DOCTYPE svg  PUBLIC '-//W3C//DTD SVG 1.1//EN'  'http://www.w3.org/Graphics/SVG/1.1/DTD/svg11.dtd'>
<svg enable-background="new 0 0 500 500" height="500px" id="Layer_1" version="1.1" viewBox="0 0 500 500" width="500px" xml:space="preserve" xmlns="http://www.w3.org/2000/svg" xmlns:xlink="http://www.w3.org/1999/xlink">
  <g>
    <path d="M229.134,233.561c37.043,0,67.068-30.026,67.068-67.068s-30.025-67.071-67.068-67.071   c-37.047,0-67.072,30.029-67.072,67.071S192.087,233.561,229.134,233.561z"/>
    <path d="M205.396,378.392l-140.99-8.271L34.819,237.097c-1.479-6.665-8.12-10.87-14.786-9.393l-0.654,0.141   c-6.667,1.48-10.881,8.083-9.402,14.747l32.767,147.73c0.466,2.106,1.445,4.393,2.776,5.905c1.878,2.63,4.904,4.772,8.416,4.772   h150.522c5.889,0,12.541-5.654,12.541-11.546v-0.394C217,383.169,211.286,378.392,205.396,378.392z"/>
    <path d="M486.378,323.07c-5.692-34.529-18.184-66.298-36.114-91.745c-23.088-32.761-54.229-53.678-85.447-57.331   c-22.963-2.688-47.756,3.674-57.878,23.936c-4.834,9.666-51.563,104.834-51.563,104.834l-115.814,12.685   c-12.41-1.33-23.585,7.665-24.916,20.099c-1.329,12.43,7.668,23.583,20.099,24.913c0,0,130.845-1.623,131.648-1.623   c8.046,0,17.94-3.684,23.524-10.21l41.028-52.069C333.928,297.901,368.322,342,356.962,402h131.4   C491.143,374,490.501,348.061,486.378,323.07z"/>
  </g>
</svg>